{
    "w2v_emb_size": 200,
    "POS_emb_size": 30,
    "position_emb_size": 20,

    "unitsLSTM": 600,
    "numCNNfilter": 192,
    "CNNfilterSizes": [2,3,4,5,6,7],
    "dropout": 0.5,

    "layers" : 3,
    "window_size" : 3,

    "batch": 64,

    "semEval": {
        "weights": 1,
        "upsampling": 1,
        "upsample-rate": 1.0,
        "embedding": 0,
        "max_sent_len": 58,
        "min_sent_len": 2
    },

    "semEval2010": {
        "weights": 0,
        "upsampling": 0,
        "upsample-rate": 1.0,
        "embedding": 300,
        "max_sent_len": 48,
        "min_sent_len": 2
    },

    "BioNLP": {
        "weights": 1,
        "upsampling": 1,
        "upsample-rate": 1.0,
        "embedding": 0,
        "max_sent_len": 220,
        "min_sent_len": 2
    },

    "scienceIE": {
        "weights": 0,
        "upsampling": 1,
        "upsample-rate": 3.0,
        "embedding": 200,
        "max_sent_len": 120,
        "min_sent_len": 2
    }
}